%YAML 1.1
%TAG !u! tag:unity3d.com,2011:
--- !u!114 &11400000
MonoBehaviour:
  m_ObjectHideFlags: 0
  m_CorrespondingSourceObject: {fileID: 0}
  m_PrefabInstance: {fileID: 0}
  m_PrefabAsset: {fileID: 0}
  m_GameObject: {fileID: 0}
  m_Enabled: 1
  m_EditorHideFlags: 0
  m_Script: {fileID: 11500000, guid: 40b287fd74603e343a5d8aef961ffe96, type: 3}
  m_Name: Level0PathB
  m_EditorClassIdentifier: 
  storyText: You walk through the darkness, the only source of light you have is the
    torch until you see a way where there is green flickering light, while approaching
    that way you saw another way but its still in complete darkness.
  nextStates:
  - {fileID: 11400000, guid: 6e46d0ff6aa270845b7f27061db8d60f, type: 2}
  - {fileID: 11400000, guid: 65679308e58c79e47a80938f8bb89436, type: 2}
